/* XPM */
static char *depthI[] = {
/* columns rows colors chars-per-pixel */
"20 50 14 1 ",
"  c #A0A0A0",
". c #A5A5A5",
"X c #ABABAB",
"o c #B4B4B3",
"O c #B7B6B6",
"+ c #D4D3D2",
"@ c #D6D6D5",
"# c #DCDBDB",
"$ c #E6E5E5",
"% c #E8E8E7",
"& c #EAE9E9",
"* c #F0EFEE",
"= c #F3F2F1",
"- c #F6F5F4",
/* pixels */
"--------------------",
"--------------------",
"--------------------",
"--------------------",
"--------------------",
"--------------------",
"--------------------",
"--------%.$---------",
"-------&X X%--------",
"-------O+ @o- ------",
"-------=- -*- -=----",
"--------- -O+ @o----",
"-----------&X X%----",
"------------%.$-----",
"--------------------",
"--------------------",
"--------------------",
"--------------------",
"--------------------",
"--------------------",
"--------------------",
"--------------------",
"--------------------",
"--------------------",
"####################",
"--------------------",
"--------------------",
"--------------------",
"--------------------",
"--------------------",
"--------------------",
"--------------------",
"--------%.$---------",
"-------&X X%--------",
"-------O+ @o- ------",
"-------=- -*- -=----",
"--------- -O+ @o----",
"-----------&X X%----",
"------------%.$-----",
"--------------------",
"--------------------",
"--------------------",
"--------------------",
"--------------------",
"--------------------",
"--------------------",
"--------------------",
"--------------------",
"--------------------",
"--------------------"
};
